…
## word-topic prob

The tidytext package provides this method for extracting the per-topic-per-word probabilities, called 
β (“beta”), from the model.

```{r}
library(tidytext)

ap_topics <- tidy(ap_lda, matrix = "beta")
ap_topics
#> # A tibble: 20,946 × 3
#>    topic term           beta
#>    <int> <chr>         <dbl>
#>  1     1 aaron      1.69e-12
#>  2     2 aaron      3.90e- 5
#>  3     1 abandon    2.65e- 5
#>  4     2 abandon    3.99e- 5
#>  5     1 abandoned  1.39e- 4
#>  6     2 abandoned  5.88e- 5
#>  7     1 abandoning 2.45e-33
#>  8     2 abandoning 2.34e- 5
#>  9     1 abbott     2.13e- 6
#> 10     2 abbott     2.97e- 5
#> # … with 20,936 more rows
```
…
This can be estimated based on the log ratio of the two: log2(beta2/beta1)

```{r}
library(tidyr)

beta_wide <- ap_topics %>%
  mutate(topic = paste0("topic", topic)) %>%
  pivot_wider(names_from = topic, values_from = beta) %>% 
  filter(topic1 > .001 | topic2 > .001) %>%
  mutate(log_ratio = log2(topic2 / topic1))

beta_wide
#> # A tibble: 198 × 4
#>    term              topic1      topic2 log_ratio
#>    <chr>              <dbl>       <dbl>     <dbl>
#>  1 administration 0.000431  0.00138         1.68 
#>  2 ago            0.00107   0.000842       -0.339
#>  3 agreement      0.000671  0.00104         0.630
#>  4 aid            0.0000476 0.00105         4.46 
#>  5 air            0.00214   0.000297       -2.85 
#>  6 american       0.00203   0.00168        -0.270
#>  7 analysts       0.00109   0.000000578   -10.9  
#>  8 area           0.00137   0.000231       -2.57 
#>  9 army           0.000262  0.00105         2.00 
#> 10 asked          0.000189  0.00156         3.05 
#> # … with 188 more rows
```
…
Based on the most common words, we can try to infer what is topic1 and what is topic 1.

## doc-topic prob
Besides *estimating each topic as a mixture of words*, LDA also models *each document as a mixture of topics*. We can examine the per-document-per-topic probabilities, called γ (“gamma”), with the matrix = "gamma" argument to tidy().

```{r}
ap_documents <- tidy(ap_lda, matrix = "gamma")
ap_documents
#> # A tibble: 4,492 × 3
#>    document topic    gamma
#>       <int> <int>    <dbl>
#>  1        1     1 0.248   
#>  2        2     1 0.362   
#>  3        3     1 0.527   
#>  4        4     1 0.357   
#>  5        5     1 0.181   
#>  6        6     1 0.000588
#>  7        7     1 0.773   
#>  8        8     1 0.00445 
#>  9        9     1 0.967   
#> 10       10     1 0.147   
#> # … with 4,482 more rows
```
Each of these values is an estimated proportion of words from that document that are generated from that topic. For example, *the model estimates that only about 25% of the words in document 1 were generated from topic 1*.


We can see that many of these documents were drawn from a mix of the two topics, but that document 6 was drawn almost entirely from topic 2, having a γ from topic 1 close to zero. To check this answer, we could tidy() the document-term matrix (see Chapter 5.1) and check what the most common words in that document were.

```{r}
tidy(AssociatedPress) %>%
  filter(document == 6) %>%
  arrange(desc(count))
#> # A tibble: 287 × 3
#>    document term           count
#>       <int> <chr>          <dbl>
#>  1        6 noriega           16
#>  2        6 panama            12
#>  3        6 jackson            6
#>  4        6 powell             6
#>  5        6 administration     5
#>  6        6 economic           5
#>  7        6 general            5
#>  8        6 i                  5
#>  9        6 panamanian         5
#> 10        6 american           4
#> # … with 277 more rows
```
…
# split into words
by_chapter_word <- by_chapter %>%
  unnest_tokens(word, text)

# find document-word counts
word_counts <- by_chapter_word %>%
  anti_join(stop_words) %>%
  count(document, word, sort = TRUE)

word_counts
#> # A tibble: 104,721 × 3
#>    document                 word        n
#>    <chr>                    <chr>   <int>
#>  1 Great Expectations_57    joe        88
#>  2 Great Expectations_7     joe        70
#>  3 Great Expectations_17    biddy      63
#>  4 Great Expectations_27    joe        58
#>  5 Great Expectations_38    estella    58
#>  6 Great Expectations_2     joe        56
#>  7 Great Expectations_23    pocket     53
#>  8 Great Expectations_15    joe        50
#>  9 Great Expectations_18    joe        50
#> 10 The War of the Worlds_16 brother    50
#> # … with 104,711 more rows
```
…
