…
### bigrams(n=2)
```{r}
library(dplyr)
library(tidytext)
library(janeaustenr)

austen_bigrams <- austen_books() %>%
  unnest_tokens(bigram, text, token = "ngrams", n = 2)

austen_bigrams
# here bigram as a token

#> # A tibble: 675,025 × 2
#>    book                bigram         
#>    <fct>               <chr>          
#>  1 Sense & Sensibility sense and      
#>  2 Sense & Sensibility and sensibility
#>  3 Sense & Sensibility <NA>           
#>  4 Sense & Sensibility by jane        
#>  5 Sense & Sensibility jane austen    
#>  6 Sense & Sensibility <NA>           
#>  7 Sense & Sensibility <NA>           
#>  8 Sense & Sensibility <NA>           
#>  9 Sense & Sensibility <NA>           
#> 10 Sense & Sensibility <NA>           
#> # … with 675,015 more rows
…
bigrams_separated <- austen_bigrams %>%
  separate(bigram, c("word1", "word2"), sep = " ")

# remove words that are common by selecting words that is not a stop-word.
bigrams_filtered <- bigrams_separated %>%
  filter(!word1 %in% stop_words$word) %>%
  filter(!word2 %in% stop_words$word)

# new bigram counts:
bigram_counts <- bigrams_filtered %>% 
  count(word1, word2, sort = TRUE)

bigram_counts
#> # A tibble: 28,975 × 3
#>    word1   word2         n
#>    <chr>   <chr>     <int>
#>  1 <NA>    <NA>      12242
#>  2 sir     thomas      266
#>  3 miss    crawford    196
#>  4 captain wentworth   143
#>  5 miss    woodhouse   143
#>  6 frank   churchill   114
#>  7 lady    russell     110
#>  8 sir     walter      108
#>  9 lady    bertram     101
#> 10 miss    fairfax      98
#> # … with 28,965 more rows
```
…
bigrams_united
```

In other analyses you may be interested in the most common trigrams(n=3):
```{r}
austen_books() %>%
  unnest_tokens(trigram, text, token = "ngrams", n = 3) %>%
  separate(trigram, c("word1", "word2", "word3"), sep = " ") %>%
  filter(!word1 %in% stop_words$word,
         !word2 %in% stop_words$word,
         !word3 %in% stop_words$word) %>%
  count(word1, word2, word3, sort = TRUE)

#> # A tibble: 6,141 × 4
#>    word1     word2     word3         n
#>    <chr>     <chr>     <chr>     <int>
#>  1 <NA>      <NA>      <NA>      13260
#>  2 dear      miss      woodhouse    20
#>  3 miss      de        bourgh       17
#>  4 lady      catherine de           11
#>  5 poor      miss      taylor       11
#>  6 sir       walter    elliot       10
#>  7 catherine de        bourgh        9
#>  8 dear      sir       thomas        8
#>  9 replied   miss      crawford      7
#> 10 sir       william   lucas         7
#> # … with 6,131 more rows
```
…
```

### Using bigrams to provide context in sentiment analysis
```{r}
bigrams_separated %>%
  filter(word1 == "not") %>%
  count(word1, word2, sort = TRUE)
#> # A tibble: 1,178 × 3
#>    word1 word2     n
#>    <chr> <chr> <int>
#>  1 not   be      580
#>  2 not   to      335
#>  3 not   have    307
#>  4 not   know    237
#>  5 not   a       184
#>  6 not   think   162
#>  7 not   been    151
#>  8 not   the     135
#>  9 not   at      126
#> 10 not   in      110
#> # … with 1,168 more rows
```
…
negated_words <- bigrams_separated %>%
  filter(word1 %in% negation_words) %>%
  inner_join(AFINN, by = c(word2 = "word")) %>%
  count(word1, word2, value, sort = TRUE)
```

## Visualizing a network of bigrams with ggraph
```{r}
library(igraph)

# original counts
bigram_counts
#> # A tibble: 28,975 × 3
#>    word1   word2         n
#>    <chr>   <chr>     <int>
#>  1 <NA>    <NA>      12242
#>  2 sir     thomas      266
#>  3 miss    crawford    196
#>  4 captain wentworth   143
#>  5 miss    woodhouse   143
#>  6 frank   churchill   114
#>  7 lady    russell     110
#>  8 sir     walter      108
#>  9 lady    bertram     101
#> 10 miss    fairfax      98
#> # … with 28,965 more rows
…
### among sections

```{r}

# divided into 10-line sections
austen_section_words <- austen_books() %>%
  filter(book == "Pride & Prejudice") %>%
  mutate(section = row_number() %/% 10) %>%
  filter(section > 0) %>%
  unnest_tokens(word, text) %>%
  filter(!word %in% stop_words$word)

austen_section_words
#> # A tibble: 37,240 × 3
#>    book              section word        
#>    <fct>               <dbl> <chr>       
#>  1 Pride & Prejudice       1 truth       
#>  2 Pride & Prejudice       1 universally 
#>  3 Pride & Prejudice       1 acknowledged
#>  4 Pride & Prejudice       1 single      
#>  5 Pride & Prejudice       1 possession  
#>  6 Pride & Prejudice       1 fortune     
#>  7 Pride & Prejudice       1 wife        
#>  8 Pride & Prejudice       1 feelings    
#>  9 Pride & Prejudice       1 views       
#> 10 Pride & Prejudice       1 entering    
#> # … with 37,230 more rows
```


```{r}
library(widyr)

# count words co-occuring within sections
word_pairs <- austen_section_words %>%
  pairwise_count(word, section, sort = TRUE)

word_pairs
#> # A tibble: 796,008 × 3
#>    item1     item2         n
#>    <chr>     <chr>     <dbl>
#>  1 darcy     elizabeth   144
#>  2 elizabeth darcy       144
#>  3 miss      elizabeth   110
#>  4 elizabeth miss        110
#>  5 elizabeth jane        106
#>  6 jane      elizabeth   106
#>  7 miss      darcy        92
#>  8 darcy     miss         92
#>  9 elizabeth bingley      91
#> 10 bingley   elizabeth    91
#> # … with 795,998 more rows
```


words that most often occur with Darcy:
```{r}
word_pairs %>%
  filter(item1 == "darcy")
#> # A tibble: 2,930 × 3
#>    item1 item2         n
#>    <chr> <chr>     <dbl>
#>  1 darcy elizabeth   144
#>  2 darcy miss         92
#>  3 darcy bingley      86
#>  4 darcy jane         46
#>  5 darcy bennet       45
#>  6 darcy sister       45
#>  7 darcy time         41
#>  8 darcy lady         38
#>  9 darcy friend       37
#> 10 darcy wickham      37
#> # … with 2,920 more rows
```
…
 phi coefficient [common measure for binary correlation]
 
The focus of the phi coefficient is how much more likely it is that either both word X and Y appear, or neither do, than that one appears without the other.

The phi coefficient is equivalent to the Pearson correlation.

```{r}
# we need to filter for at least relatively common words first
word_cors <- austen_section_words %>%
  group_by(word) %>%
  filter(n() >= 20) %>%
  pairwise_cor(word, section, sort = TRUE)

word_cors
#> # A tibble: 154,842 × 3
#>    item1     item2     correlation
#>    <chr>     <chr>           <dbl>
#>  1 bourgh    de              0.951
#>  2 de        bourgh          0.951
#>  3 pounds    thousand        0.701
#>  4 thousand  pounds          0.701
#>  5 william   sir             0.664
#>  6 sir       william         0.664
#>  7 catherine lady            0.663
#>  8 lady      catherine       0.663
#>  9 forster   colonel         0.622
#> 10 colonel   forster         0.622
#> # … with 154,832 more rows
…
