…
terms <- Terms(AssociatedPress)
head(terms)
```

tidy this matrix into tidy data frame with one-token-per-document-per-row.: *tidy()* 
```{r}
library(dplyr)
library(tidytext)

# transform rows(doc) and cols(term) into a tidy df
ap_td <- tidy(AssociatedPress)
ap_td
#> # A tibble: 302,031 × 3
#>    document term       count
#>       <int> <chr>      <dbl>
#>  1        1 adding         1
#>  2        1 adult          2
#>  3        1 ago            1
#>  4        1 alcohol        1
#>  5        1 allegedly      1
#>  6        1 allen          1
#>  7        1 apparently     2
#>  8        1 appeared       1
#>  9        1 arrested       1
#> 10        1 assault        1
#> # … with 302,021 more rows
```
…
```{r}
data("data_corpus_inaugural", package = "quanteda")
inaug_dfm <- data_corpus_inaugural %>%
  quanteda::tokens() %>%
  quanteda::dfm(verbose = FALSE)
inaug_dfm
#> Document-feature matrix of: 59 documents, 9,439 features (91.84% sparse) and 4 docvars.
```

turning them into a one-token-per-document-per-row table: *tidy()*

```{r}
inaug_td <- tidy(inaug_dfm)
inaug_td
#> # A tibble: 45,453 × 3
#>    document        term            count
#>    <chr>           <chr>           <dbl>
#>  1 1789-Washington fellow-citizens     1
#>  2 1797-Adams      fellow-citizens     3
#>  3 1801-Jefferson  fellow-citizens     2
#>  4 1809-Madison    fellow-citizens     1
#>  5 1813-Madison    fellow-citizens     1
#>  6 1817-Monroe     fellow-citizens     5
#>  7 1821-Monroe     fellow-citizens     1
#>  8 1841-Harrison   fellow-citizens    11
#>  9 1845-Polk       fellow-citizens     1
#> 10 1849-Taylor     fellow-citizens     1
#> # … with 45,443 more rows
```


analysis: words most specific to each of the inaugural speeches. 
```{r}
inaug_tf_idf <- inaug_td %>%
  bind_tf_idf(term, document, count) %>%
  arrange(desc(tf_idf))

inaug_tf_idf
#> # A tibble: 45,453 × 6
#>    document        term        count      tf   idf tf_idf
#>    <chr>           <chr>       <dbl>   <dbl> <dbl>  <dbl>
#>  1 1793-Washington arrive          1 0.00680  4.08 0.0277
#>  2 1793-Washington upbraidings     1 0.00680  4.08 0.0277
#>  3 1793-Washington violated        1 0.00680  3.38 0.0230
#>  4 1793-Washington willingly       1 0.00680  3.38 0.0230
#>  5 1793-Washington incurring       1 0.00680  3.38 0.0230
#>  6 1793-Washington previous        1 0.00680  2.98 0.0203
#>  7 1793-Washington knowingly       1 0.00680  2.98 0.0203
#>  8 1793-Washington injunctions     1 0.00680  2.98 0.0203
#>  9 1793-Washington witnesses       1 0.00680  2.98 0.0203
#> 10 1793-Washington besides         1 0.00680  2.69 0.0183
#> # … with 45,443 more rows
…
# most common words
acq_tokens %>%
  count(word, sort = TRUE)


# tf-idf
acq_tokens %>%
  count(id, word) %>%
  bind_tf_idf(word, id, n) %>%
  arrange(desc(tf_idf))
#> # A tibble: 2,853 × 6
#>    id    word         n     tf   idf tf_idf
#>    <chr> <chr>    <int>  <dbl> <dbl>  <dbl>
#>  1 186   groupe       2 0.133   3.91  0.522
#>  2 128   liebert      3 0.130   3.91  0.510
#>  3 474   esselte      5 0.109   3.91  0.425
#>  4 371   burdett      6 0.103   3.91  0.405
#>  5 442   hazleton     4 0.103   3.91  0.401
#>  6 199   circuit      5 0.102   3.91  0.399
#>  7 162   suffield     2 0.1     3.91  0.391
#>  8 498   west         3 0.1     3.91  0.391
#>  9 441   rmj          8 0.121   3.22  0.390
#> 10 467   nursery      3 0.0968  3.91  0.379
#> # … with 2,843 more rows
```
…
